[
	{
		"type": "story",
		"story": 0,
		"layout": "coverflow",
		"title": "Planets",
		"scrollToItem": 4,
		"height": 810.0,
		"modules": [
			{
				"type": "topic",
				"segment": "fullWidth",
				"story": 0,
				"topic": 0,
				"name": "Sun",
				"text": "Sun",
				"color": "#F6D262",
				"image": "sun",
				"sound": "Jupiter.mp3",
				"modules": [
					{
						"type": "level",
						"story": 0,
						"topic": 0,
						"level": 1,
						"modules": [
							{
								"type": "questions",
								"topic": 0,
								"level": 1,
								"modules": [
									{
										"id": 1,
										"type": "question",
										"answer": 3,
										"text": "Il nostro Sole ha 4 miliardi e mezzo di anni. E’ impressionante ma, su scala universale, il Sole è ancora una stella giovane",
										"numberOfColumns": 1,
										"modules": [
											{
												"type": "title",
												"text": "Quanti anni ha il Sole?",
												"alignement": "centered"
											},
											{
												"type": "answer",
												"id": 1,
												"body": "1 Miliardo di anni"
											},
											{
												"type": "answer",
												"id": 2,
												"body": "Mezzo miliardo di anni"
											},
											{
												"type": "answer",
												"id": 3,
												"body": "4 miliardi e mezzo di anni"
											},
											{
												"type": "button",
												"text": "Confirm",
												"isEnabled": false
											}
										]
									},
									{
										"id": 2,
										"type": "question",
										"answer": 1,
										"text": "Si ha un’eclissi Solare quando, al momento giusto, la Luna passa tra il Sole e la Terra",
										"numberOfColumns": 1,
										"modules": [
											{
												"type": "title",
												"text": "Quando possiamo osservare un'eclissi solare?",
												"alignement": "centered"
											},
											{
												"type": "answer",
												"id": 1,
												"body": "Quando la Luna passa tra Sole e Terra"
											},
											{
												"type": "answer",
												"id": 2,
												"body": "Quando la Terra passa tra Luna e Sole"
											},
											{
												"type": "button",
												"text": "Confirm",
												"isEnabled": false
											}
										]
									},
									{
										"id": 3,
										"type": "question",
										"answer": 1,
										"text": "Il Sole è una stella, proprio come quelle che vedi la notte nel cielo. La vedi così grande poiché è la stella più vicina al nostro pianeta",
										"numberOfColumns": 1,
										"modules": [
											{
												"type": "title",
												"text": "Cos'è il Sole?",
												"alignement": "centered"
											},
											{
												"type": "answer",
												"id": 1,
												"body": "Una stella",
                                                "image": "sun"
											},
											{
												"type": "answer",
												"id": 2,
												"body": "Un pianeta",
                                                "image": "earth"
											},
											{
												"type": "answer",
												"id": 3,
												"body": "Un satellite",
                                                "image": "moon"
											},
											{
												"type": "button",
												"text": "Confirm",
												"isEnabled": false
											}
										]
									},
									{
										"id": 4,
										"type": "question",
										"answer": 1,
										"text": "Se cercassi di riempire un Sole vuoto con delle Terre, potresti inserirne circa 1,3 milioni prima di riempirlo",
										"numberOfColumns": 1,
										"modules": [
											{
												"type": "title",
												"text": "Quante Terre potrebbero trovare posto all’interno del Sole?",
												"alignement": "centered"
											},
											{
												"type": "answer",
												"id": 1,
												"body": "Più di un milione"
											},
											{
												"type": "answer",
												"id": 2,
												"body": "Mezzo milione"
											},
											{
												"type": "answer",
												"id": 3,
												"body": "Un milione"
											},
											{
												"type": "button",
												"text": "Confirm",
												"isEnabled": false
											}
										]
									}
								]
							},
							{
								"type": "content",
								"modules": [
									{
										"type": "space",
										"height": 50
									},
									{
										"type": "title",
										"text": "LIVELLO",
										"alignement": "center",
										"style": "small"
									},
									{
										"type": "title",
										"text": "COMPLETATO",
										"alignement": "center",
										"style": "h1"
									},
									{
										"type": "planet",
										"name": "Sun",
										"color": "#F6D262",
										"image": "planet",
										"speed": 75,
										"offset": 0,
										"orbit": 0,
										"topic": 0,
										"sound": "Technicolor.mp3",
										"textColor": "answerText",
										"percentage": 0.5
									},
									{
										"type": "button",
										"text": "Next",
										"endpoint": "ar"
									}
								]
							}
						]
					},
					{
						"type": "level",
						"story": 0,
						"topic": 0,
						"level": 2,
						"modules": [
							{
								"type": "questions",
								"topic": 0,
								"level": 2,
								"modules": [
									{
										"id": 5,
										"type": "question",
										"answer": 2,
										"text": "No, il Sole viaggia a 220 chilometri al secondo sulla sua orbita attorno al centro della Via Lattea",
										"numberOfColumns": 1,
										"modules": [
											{
												"type": "title",
												"text": "Il Sole è fermo?",
												"alignement": "centered"
											},
											{
												"type": "answer",
												"id": 1,
												"body": "Si"
											},
											{
												"type": "answer",
												"id": 2,
												"body": "No"
											},
											{
												"type": "button",
												"text": "Confirm",
												"isEnabled": false
											}
										]
									},
									{
										"id": 6,
										"type": "question",
										"answer": 1,
										"text": "La distanza media tra la Terra e il Sole è di circa 150 milioni di chilometri. E’ così lontano che la sua luce impiega 8 minuti per raggiungere la Terra",
										"numberOfColumns": 1,
										"modules": [
											{
												"type": "title",
												"text": "Quanto dista il Sole dalla Terra?",
												"alignement": "centered"
											},
											{
												"type": "answer",
												"id": 1,
												"body": "150 milioni di chilometri"
											},
											{
												"type": "answer",
												"id": 2,
												"body": "100 milioni di chilometri"
											},
											{
												"type": "answer",
												"id": 3,
												"body": "200 milioni di chilometri"
											},
											{
												"type": "button",
												"text": "Confirm",
												"isEnabled": false
											}
										]
									},
									{
										"id": 7,
										"type": "question",
										"answer": 3,
										"text": "La temperatura del Sole è di circa 15 milioni di gradi Celsius. Fa davvero caldo lì, quindi non dimenticarti la crema solare quando lo visiti",
										"numberOfColumns": 1,
										"modules": [
											{
												"type": "title",
												"text": "Qual è la temperatura del Sole?",
												"alignement": "centered"
											},
											{
												"type": "answer",
												"id": 1,
												"body": "8 milioni di gradi Celsius"
											},
											{
												"type": "answer",
												"id": 2,
												"body": "10 milioni di gradi Celsius"
											},
											{
												"type": "answer",
												"id": 3,
												"body": "15 milioni di gradi Celsius"
											},
											{
												"type": "button",
												"text": "Confirm",
												"isEnabled": false
											}
										]
									},
									{
										"id": 8,
										"type": "question",
										"answer": 1,
										"text": "Si, il Sole ruota ma in direzione opposta rispetto alla Terra. Infatti, ruota da Ovest verso Est",
										"numberOfColumns": 1,
										"modules": [
											{
												"type": "title",
												"text": "Il Sole ruota?",
												"alignement": "centered"
											},
											{
												"type": "answer",
												"id": 1,
												"body": "Si"
											},
											{
												"type": "answer",
												"id": 2,
												"body": "No"
											},
											{
												"type": "button",
												"text": "Confirm",
												"isEnabled": false
											}
										]
									}
								]
							}
						]
					}
				]
			},
			{
				"type": "topic",
				"segment": "fiftyFifty",
				"story": 0,
				"topic": 4,
				"name": "Mars",
				"text": "Mars",
				"color": "#AA4D34",
				"image": "mars",
				"sound": "Marte.mp3",
				"modules": [
					{
						"type": "level",
						"story": 0,
						"topic": 4,
						"level": 1,
						"modules": [
							{
								"type": "questions",
								"topic": 4,
								"level": 1,
								"modules": [
									{
										"id": 1,
										"type": "question",
										"answer": 1,
										"text": "Si, Marte, così come la Terra, ha le stagioni. L’unica differenza è che queste durano il doppio rispetto a quelle terrestri",
										"numberOfColumns": 1,
										"modules": [
											{
												"type": "title",
												"text": "Marte ha le stagioni?",
												"alignement": "centered"
											},
											{
												"type": "answer",
												"id": 1,
												"body": "Si"
											},
											{
												"type": "answer",
												"id": 2,
												"body": "No"
											},
											{
												"type": "button",
												"text": "Confirm",
												"isEnabled": false
											}
										]
									},
									{
										"id": 2,
										"type": "question",
										"answer": 3,
										"text": "Marte è uno dei quattro pianeti rocciosi del nostro Sistema Solare. Gli altri tre sono Mercurio, Venere e la Terra",
										"numberOfColumns": 1,
										"modules": [
											{
												"type": "title",
												"text": "Che tipo di pianeta è Marte?",
												"alignement": "centered"
											},
											{
												"type": "answer",
												"id": 1,
												"body": "Gigante Gassoso"
											},
											{
												"type": "answer",
												"id": 2,
												"body": "Gigante Ghiacciato"
											},
											{
												"type": "answer",
												"id": 3,
												"body": "Roccioso"
											},
											{
												"type": "button",
												"text": "Confirm",
												"isEnabled": false
											}
										]
									},
									{
										"id": 3,
										"type": "question",
										"answer": 3,
										"text": "Un anno Marziano dura 687 Giorni Terrestri, quasi il doppio rispetto ad un anno Terrestre",
										"numberOfColumns": 1,
										"modules": [
											{
												"type": "title",
												"text": "Quanto dura un anno su Marte?",
												"alignement": "centered"
											},
											{
												"type": "answer",
												"id": 1,
												"body": "365 Giorni Terrestri"
											},
											{
												"type": "answer",
												"id": 2,
												"body": "542 Giorni Terrestri"
											},
											{
												"type": "answer",
												"id": 3,
												"body": "687 Giorni Terrestri"
											},
											{
												"type": "button",
												"text": "Confirm",
												"isEnabled": false
											}
										]
									},
									{
										"id": 4,
										"type": "question",
										"answer": 1,
										"text": "Si, Marte presenta dei Vulcani. Il più grande tra questi, l’ Olympus Mons, è inoltre il più grande vulcano del Sistema Solare con i suoi 27 chilometri in altezza",
										"numberOfColumns": 1,
										"modules": [
											{
												"type": "title",
												"text": "Marte ha vulcani?",
												"alignement": "centered"
											},
											{
												"type": "answer",
												"id": 1,
												"body": "Si"
											},
											{
												"type": "answer",
												"id": 2,
												"body": "No"
											},
											{
												"type": "button",
												"text": "Confirm",
												"isEnabled": false
											}
										]
									}
								]
							},
							{
								"type": "content",
								"modules": [
									{
										"type": "space",
										"height": 50
									},
									{
										"type": "title",
										"text": "LIVELLO",
										"alignement": "center",
										"style": "small"
									},
									{
										"type": "title",
										"text": "COMPLETATO",
										"alignement": "center",
										"style": "h1"
									},
									{
										"type": "planet",
										"name": "Mars",
										"color": "#AA4D34",
										"image": "planet",
										"speed": 75,
										"offset": 10,
										"orbit": 4,
										"topic": 4,
										"sound": "Marte.mp3",
										"textColor": "answerText",
										"percentage": 0.5
									},
									{
										"type": "button",
										"text": "Next",
										"endpoint": "ar"
									}
								]
							}
						]
					},
					{
						"type": "level",
						"story": 0,
						"topic": 4,
						"level": 2,
						"modules": [
							{
								"type": "questions",
								"topic": 4,
								"level": 2,
								"modules": [
									{
										"id": 5,
										"type": "question",
										"answer": 3,
										"text": "5 rover hanno eseguito con successo l'atterraggio su Marte e uno di loro, Curiosity, è ancora operativo. Nel frattempo Opportunity, uno dei rover più famosi, ha smesso di comunicare con la terra nel Giugno 2018",
										"numberOfColumns": 1,
										"modules": [
											{
												"type": "title",
												"text": "Quanti rover sono atterrati su Marte?",
												"alignement": "centered"
											},
											{
												"type": "answer",
												"id": 1,
												"body": "3"
											},
											{
												"type": "answer",
												"id": 2,
												"body": "4"
											},
											{
												"type": "answer",
												"id": 3,
												"body": "5"
											},
											{
												"type": "button",
												"text": "Confirm",
												"isEnabled": false
											}
										]
									},
									{
										"id": 6,
										"type": "question",
										"answer": 2,
										"text": "No, Marte non presenta anelli, ma potrebbe in futuro. Infatti Phobos, la più grande delle lune di Marte, sarà distrutta dalle forze mareali del pianeta e formerà un anello planetario in circa 50 milioni di anni",
										"numberOfColumns": 1,
										"modules": [
											{
												"type": "title",
												"text": "Marte ha degli anelli?",
												"alignement": "centered"
											},
											{
												"type": "answer",
												"id": 1,
												"body": "Si"
											},
											{
												"type": "answer",
												"id": 2,
												"body": "No"
											},
											{
												"type": "button",
												"text": "Confirm",
												"isEnabled": false
											}
										]
									},
									{
										"id": 7,
										"type": "question",
										"answer": 2,
										"text": "Durante il giorno il cielo è di un colore Giallo-Marrone, a causa della polvere che riempie l’atmosfera del pianeta",
										"numberOfColumns": 1,
										"modules": [
											{
												"type": "title",
												"text": "Qual è il colore del cielo su Marte?",
												"alignement": "centered"
											},
											{
												"type": "answer",
												"id": 1,
												"body": "Blu"
											},
											{
												"type": "answer",
												"id": 2,
												"body": "Giallo-Marrone"
											},
											{
												"type": "answer",
												"id": 3,
												"body": "Grigio"
											},
											{
												"type": "button",
												"text": "Confirm",
												"isEnabled": false
											}
										]
									},
									{
										"id": 8,
										"type": "question",
										"answer": 3,
										"text": "Stando in piedi su Marte, il Sole in cielo ti apparirebbe grande la metà rispetto a quando visto sulla Terra",
										"numberOfColumns": 1,
										"modules": [
											{
												"type": "title",
												"text": "Quanto è grande il Sole nel cielo visto su Marte rispetto a quando è visto sulla Terra?",
												"alignement": "centered"
											},
											{
												"type": "answer",
												"id": 1,
												"body": "Il doppio"
											},
											{
												"type": "answer",
												"id": 2,
												"body": "Uguale"
											},
											{
												"type": "answer",
												"id": 3,
												"body": "La metà"
											},
											{
												"type": "button",
												"text": "Confirm",
												"isEnabled": false
											}
										]
									}
								]
							}
						]
					}
				]
			},
			{
				"type": "topic",
				"segment": "fiftyFifty",
				"story": 0,
				"topic": 3,
				"name": "Earth",
				"text": "Earth",
				"color": "#6797C4",
				"image": "earth",
				"sound": "Technicolor.mp3",
				"modules": [
					{
						"type": "level",
						"story": 0,
						"topic": 3,
						"level": 1,
						"modules": [
							{
								"type": "questions",
								"topic": 3,
								"level": 1,
								"modules": [
									{
										"id": 1,
										"type": "question",
										"answer": 2,
										"text": "La terra è speciale perché è l’unico pianeta attualmente conosciuto a presentare Oceani d’acqua sulla superficie. L’acqua copre il 70% della superficie della Terra.",
										"numberOfColumns": 1,
										"modules": [
											{
												"type": "title",
												"text": "Quanta superficie della Terra è coperta da acqua?",
												"alignement": "centered"
											},
											{
												"type": "answer",
												"id": 1,
												"body": "40%"
											},
											{
												"type": "answer",
												"id": 2,
												"body": "70%"
											},
											{
												"type": "answer",
												"id": 3,
												"body": "15%"
											},
											{
												"type": "button",
												"text": "Confirm",
												"isEnabled": false
											}
										]
									},
									{
										"id": 2,
										"type": "question",
										"answer": 1,
										"text": "La Terra ha solo una luna. E’ l’unico pianeta del Sistema Solare ad averne solo una",
										"numberOfColumns": 2,
										"modules": [
											{
												"type": "title",
												"text": "Quante lune ha la terra?",
												"alignement": "centered"
											},
											{
												"type": "answer",
												"id": 1,
												"body": "Una luna!",
												"image": "earth-one-moon"
											},
											{
												"type": "answer",
												"id": 2,
												"body": "2 lune!",
												"image": "earth-two-moon"
											},
											{
												"type": "answer",
												"id": 3,
												"body": "3 lune!",
												"image": "earth-three-moon"
											},
											{
												"type": "answer",
												"id": 4,
												"body": "4 lune!",
												"image": "earth-four-moon"
											},
											{
												"type": "button",
												"text": "Confirm",
												"isEnabled": false
											}
										]
									},
									{
										"id": 3,
										"type": "question",
										"answer": 3,
										"text": "Un anno sulla Terra dura 365.25 giorni. Quello 0.25 in più comporta l’aggiunta di un giorno in più al calendario ogni quattro anni. Quando accade, si ha l’anno bisestile",
										"numberOfColumns": 1,
										"modules": [
											{
												"type": "title",
												"text": "Quanti giorni ci sono in un anno?",
												"alignement": "centered"
											},
											{
												"type": "answer",
												"id": 1,
												"body": "365 giorni!"
											},
											{
												"type": "answer",
												"id": 2,
												"body": "366 giorni!"
											},
											{
												"type": "answer",
												"id": 3,
												"body": "365.25 giorni!"
											},
											{
												"type": "button",
												"text": "Confirm",
												"isEnabled": false
											}
										]
									},
									{
										"id": 4,
										"type": "question",
										"answer": 1,
										"text": "La Terra è il terzo pianeta del nostro Sistema Solare. Questo significa che Venere e Marte sono i suoi vicini.",
										"numberOfColumns": 1,
										"modules": [
											{
												"type": "title",
												"text": "Quali sono i vicini della Terra?",
												"alignement": "centered"
											},
											{
												"type": "answer",
												"id": 1,
												"body": "Venere e Marte!"
											},
											{
												"type": "answer",
												"id": 2,
												"body": "Venere!"
											},
											{
												"type": "answer",
												"id": 3,
												"body": "Luna e Marte!"
											},
											{
												"type": "button",
												"text": "Confirm",
												"isEnabled": false
											}
										]
									}
								]
							},
							{
								"type": "content",
								"modules": [
									{
										"type": "space",
										"height": 50
									},
									{
										"type": "title",
										"text": "LIVELLO",
										"alignement": "center",
										"style": "small"
									},
									{
										"type": "title",
										"text": "COMPLETATO",
										"alignement": "center",
										"style": "h1"
									},
									{
										"type": "planet",
										"name": "Earth",
										"color": "#6797C4",
										"image": "planet",
										"speed": 35,
										"offset": 20,
										"orbit": 3,
										"topic": 3,
										"sound": "Technicolor.mp3",
										"textColor": "answerText",
										"percentage": 0.5
									},
									{
										"type": "button",
										"text": "Next",
										"endpoint": "ar"
									}
								]
							}
						]
					},
					{
						"type": "level",
						"story": 0,
						"topic": 3,
						"level": 2,
						"modules": [
							{
								"type": "questions",
								"topic": 3,
								"level": 2,
								"modules": [
									{
										"id": 5,
										"type": "question",
										"answer": 1,
										"text": "La Terra compie due movimenti rotazionali: uno attorno al suo asse, da est ad ovest, e l’altro attorno al Sole, detto Rivoluzione",
										"numberOfColumns": 1,
										"modules": [
											{
												"type": "title",
												"text": "Quante rotazioni fa la terra?",
												"alignement": "centered"
											},
											{
												"type": "answer",
												"id": 1,
												"body": "2"
											},
											{
												"type": "answer",
												"id": 2,
												"body": "3"
											},
											{
												"type": "answer",
												"id": 3,
												"body": "4"
											},
											{
												"type": "button",
												"text": "Confirm",
												"isEnabled": false
											}
										]
									},
									{
										"id": 6,
										"type": "question",
										"answer": 3,
										"text": "Ci sono posti sulla Terra dove per mesi è sempre giorno e per altri mesi è sempre notte. Ciò accade solo nei due Circoli Polari",
										"numberOfColumns": 1,
										"modules": [
											{
												"type": "title",
												"text": "Quanto sono lunghi i giorni nel Circolo Polare Artico e in quello Antartico?",
												"alignement": "centered"
											},
											{
												"type": "answer",
												"id": 1,
												"body": "24 Ore!"
											},
											{
												"type": "answer",
												"id": 2,
												"body": "2 Ore!"
											},
											{
												"type": "answer",
												"id": 3,
												"body": "Mesi!"
											},
											{
												"type": "button",
												"text": "Confirm",
												"isEnabled": false
											}
										]
									},
									{
										"id": 7,
										"type": "question",
										"answer": 2,
										"text": "La Terra è l’unico pianeta attualmente conosciuto che supporta la vita",
										"numberOfColumns": 1,
										"modules": [
											{
												"type": "title",
												"text": "Quali sono i pianeti che permettono la vita?",
												"alignement": "centered"
											},
											{
												"type": "answer",
												"id": 1,
												"body": "Terra e Venere!"
											},
											{
												"type": "answer",
												"id": 2,
												"body": "Terra!"
											},
											{
												"type": "answer",
												"id": 3,
												"body": "Terra e Marte!"
											},
											{
												"type": "button",
												"text": "Confirm",
												"isEnabled": false
											}
										]
									},
									{
										"id": 8,
										"type": "question",
										"answer": 2,
										"text": "La figura geometrica che descrive il nostro pianeta non è una sfera ma una ellisse, che può essere ottenuta schiacciando leggermente la sfera ai poli",
										"numberOfColumns": 1,
										"modules": [
											{
												"type": "title",
												"text": "Che forma ha la Terra?",
												"alignement": "centered"
											},
											{
												"type": "answer",
												"id": 1,
												"body": "Sferica"
											},
											{
												"type": "answer",
												"id": 2,
												"body": "Ellissoidale"
											},
											{
												"type": "answer",
												"id": 3,
												"body": "Piatta"
											},
											{
												"type": "button",
												"text": "Confirm",
												"isEnabled": false
											}
										]
									}
								]
							}
						]
					}
				]
			},
			{
				"type": "topic",
				"segment": "fiftyFifty",
				"story": 0,
				"topic": 2,
				"name": "Venus",
				"text": "Venus",
				"color": "#DC868C",
				"image": "venus",
				"sound": "Venus.mp3",
				"modules": [
					{
						"type": "level",
						"story": 0,
						"topic": 2,
						"level": 1,
						"modules": [
							{
								"type": "questions",
								"topic": 2,
								"level": 1,
								"modules": [
									{
										"id": 1,
										"type": "question",
										"answer": 3,
										"text": "La temperatura su Venere oscilla tra i 380° e 464° Celsius! Nonostante Venere non sia il pianeta più vicino al sole, è comunque il più caldo!",
										"numberOfColumns": 1,
										"modules": [
											{
												"type": "title",
												"text": "Qual è la temperatura di Venere?",
												"alignement": "centered"
											},
											{
												"type": "answer",
												"id": 1,
												"body": "Meno di 30° Celsius"
											},
											{
												"type": "answer",
												"id": 2,
												"body": "Più di 1000° Celsius"
											},
											{
												"type": "answer",
												"id": 3,
												"body": "Tra 380° e 464° Celsius"
											},
											{
												"type": "button",
												"text": "Confirm",
												"isEnabled": false
											}
										]
									},
									{
										"id": 2,
										"type": "question",
										"answer": 3,
										"text": "Un anno su Venere dura circa 225 Giorni Terrestri, che sono circa 8 mesi qui sulla Terra!",
										"numberOfColumns": 1,
										"modules": [
											{
												"type": "title",
												"text": "Quanto dura un anno su Venere?",
												"alignement": "centered"
											},
											{
												"type": "answer",
												"id": 1,
												"body": "150 Giorni Terrestri"
											},
											{
												"type": "answer",
												"id": 2,
												"body": "680 Giorni Terrestri"
											},
											{
												"type": "answer",
												"id": 3,
												"body": "225 Giorni Terrestri"
											},
											{
												"type": "button",
												"text": "Confirm",
												"isEnabled": false
											}
										]
									},
									{
										"id": 3,
										"type": "question",
										"answer": 3,
										"text": "Venere è stato visitato da molti veicoli spaziali: Mariner 2, Mariner 5, Mariner 10, Venera 9, Pioneer Venus 1, Pioneer Venus 2 e un orbiter chiamato Magellan",
										"numberOfColumns": 1,
										"modules": [
											{
												"type": "title",
												"text": "Quante volte è stato visitato Venere?",
												"alignement": "centered"
											},
											{
												"type": "answer",
												"id": 1,
												"body": "3 Volte"
											},
											{
												"type": "answer",
												"id": 2,
												"body": "5 Volte"
											},
											{
												"type": "answer",
												"id": 3,
												"body": "7 Volte"
											},
											{
												"type": "button",
												"text": "Confirm",
												"isEnabled": false
											}
										]
									},
									{
										"id": 4,
										"type": "question",
										"answer": 3,
										"text": "Venere è il secondo pianeta del nostro Sistema Solare. Ciò implica che la Terra e Mercurio siano i suoi vicini",
										"numberOfColumns": 1,
										"modules": [
											{
												"type": "title",
												"text": "Quali sono i vicini di Venere?",
												"alignement": "centered"
											},
											{
												"type": "answer",
												"id": 1,
												"body": "Sole e Terra."
											},
											{
												"type": "answer",
												"id": 2,
												"body": "Giove e Saturno."
											},
											{
												"type": "answer",
												"id": 3,
												"body": "Terra e Mercurio."
											},
											{
												"type": "button",
												"text": "Confirm",
												"isEnabled": false
											}
										]
									}
								]
							},
							{
								"type": "content",
								"modules": [
									{
										"type": "space",
										"height": 50
									},
									{
										"type": "title",
										"text": "LIVELLO",
										"alignement": "center",
										"style": "small"
									},
									{
										"type": "title",
										"text": "COMPLETATO",
										"alignement": "center",
										"style": "h1"
									},
									{
										"type": "planet",
										"name": "Venus",
										"color": "#DC868C",
										"image": "planet",
										"speed": 75,
										"offset": 30,
										"orbit": 2,
										"topic": 2,
										"sound": "Venus.mp3",
										"textColor": "answerText",
										"percentage": 0.5
									},
									{
										"type": "button",
										"text": "Next",
										"endpoint": "ar"
									}
								]
							}
						]
					},
					{
						"type": "level",
						"story": 0,
						"topic": 2,
						"level": 2,
						"modules": [
							{
								"type": "questions",
								"topic": 2,
								"level": 2,
								"modules": [
									{
										"id": 5,
										"type": "question",
										"answer": 1,
										"text": "Venere è uno degli unici due pianeti che non hanno lune nel nostro Sistema Solare",
										"numberOfColumns": 1,
										"modules": [
											{
												"type": "title",
												"text": "Quante lune e satelliti ha Venere?",
												"alignement": "centered"
											},
											{
												"type": "answer",
												"id": 1,
												"body": "Nessuna luna o satellite!"
											},
											{
												"type": "answer",
												"id": 2,
												"body": "7 lune e satelliti!"
											},
											{
												"type": "answer",
												"id": 3,
												"body": "Nessuna luna e 15 satelliti!"
											},
											{
												"type": "button",
												"text": "Confirm",
												"isEnabled": false
											}
										]
									},
									{
										"id": 6,
										"type": "question",
										"answer": 2,
										"text": "A causa dell’orbita e della rotazione di Venere, un solo giorno dura quanto 116 giorni sulla Terra",
										"numberOfColumns": 1,
										"modules": [
											{
												"type": "title",
												"text": "Quanto è lungo un giorno su Venere?",
												"alignement": "centered"
											},
											{
												"type": "answer",
												"id": 1,
												"body": "224 Giorni Terrestri"
											},
											{
												"type": "answer",
												"id": 2,
												"body": "116 Giorni Terrestri"
											},
											{
												"type": "answer",
												"id": 3,
												"body": "365 Giorni Terrestri"
											},
											{
												"type": "button",
												"text": "Confirm",
												"isEnabled": false
											}
										]
									},
									{
										"id": 7,
										"type": "question",
										"answer": 2,
										"text": "Venere è probabilmente il pianeta con più vulcani nel Sistema Solare, ha ben più di mille vulcani ma non tutti sono ancora attivi",
										"numberOfColumns": 1,
										"modules": [
											{
												"type": "title",
												"text": "Quanti vulcani ci sono su Venere?",
												"alignement": "centered"
											},
											{
												"type": "answer",
												"id": 1,
												"body": "Non ci sono vulcani!"
											},
											{
												"type": "answer",
												"id": 2,
												"body": "Più di 1000 vulcani!"
											},
											{
												"type": "answer",
												"id": 3,
												"body": "150 vulcani!"
											},
											{
												"type": "button",
												"text": "Confirm",
												"isEnabled": false
											}
										]
									},
									{
										"id": 8,
										"type": "question",
										"answer": 2,
										"text": "Venere è conosciuto dall’umanità sin dai tempi antichi poiché è visibile ad occhio nudi. E’ inoltre il pianeta più luminoso del Sistema Solare",
										"numberOfColumns": 1,
										"modules": [
											{
												"type": "title",
												"text": "Come possiamo vedere Venere dalla Terra?",
												"alignement": "centered"
											},
											{
												"type": "answer",
												"id": 1,
												"body": "Con un telescopio"
											},
											{
												"type": "answer",
												"id": 2,
												"body": "Ad occhi nudi"
											},
											{
												"type": "answer",
												"id": 3,
												"body": "Non possiamo vedere Venere"
											},
											{
												"type": "button",
												"text": "Confirm",
												"isEnabled": false
											}
										]
									}
								]
							}
						]
					}
				]
			},
			{
				"type": "topic",
				"segment": "fiftyFifty",
				"story": 0,
				"topic": 1,
				"name": "Mercury",
				"text": "Mercury",
				"color": "#CFC2BC",
				"image": "mercury",
				"sound": "Mercury.mp3",
				"modules": [
					{
						"type": "level",
						"story": 0,
						"topic": 1,
						"level": 1,
						"modules": [
							{
								"type": "questions",
								"topic": 1,
								"level": 1,
								"modules": [
									{
										"id": 1,
										"type": "question",
										"answer": 2,
										"text": "Un giorno su Mercurio dura circa 59 Giorni Terrestri, che sono circa 2 mesi qui sulla Terra",
										"numberOfColumns": 1,
										"modules": [
											{
												"type": "title",
												"text": "Quanto dura un giorno su Mercurio?",
												"alignement": "centered"
											},
											{
												"type": "answer",
												"id": 1,
												"body": "365 Giorni Terrestri"
											},
											{
												"type": "answer",
												"id": 2,
												"body": "59 Giorni Terrestri"
											},
											{
												"type": "answer",
												"id": 3,
												"body": "2 Ore"
											},
											{
												"type": "button",
												"text": "Confirm",
												"isEnabled": false
											}
										]
									},
									{
										"id": 2,
										"type": "question",
										"answer": 1,
										"text": "Mercurio è il pianeta più piccolo ed interno del Sistema Solare. E’ il più vicino al Sole",
										"numberOfColumns": 1,
										"modules": [
											{
												"type": "title",
												"text": "Qual è il posto di Mercurio nel nostro Sistema Solare rispetto al Sole?",
												"alignement": "centered"
											},
											{
												"type": "answer",
												"id": 1,
												"body": "Mercurio è il pianeta più vicino"
											},
											{
												"type": "answer",
												"id": 2,
												"body": "Mercurio è il pianeta più lontano"
											},
											{
												"type": "answer",
												"id": 3,
												"body": "Mercurio non è un pianeta"
											},
											{
												"type": "button",
												"text": "Confirm",
												"isEnabled": false
											}
										]
									},
									{
										"id": 3,
										"type": "question",
										"answer": 1,
										"text": "Mercurio era il messaggero degli Dei e il protettore dei viaggiatori: sia il pianeta del Sistema Solare che l’elemento chimico sono chiamati così in suo onore",
										"numberOfColumns": 1,
										"modules": [
											{
												"type": "title",
												"text": "A cosa si deve il nome Mercurio?",
												"alignement": "centered"
											},
											{
												"type": "answer",
												"id": 1,
												"body": "E’ chiamato come la divinità romana Mercurio"
											},
											{
												"type": "answer",
												"id": 2,
												"body": "Perché è un nome divertente!"
											},
											{
												"type": "answer",
												"id": 3,
												"body": "La persona che lo ha scoperto si chiamava Mercurio"
											},
											{
												"type": "button",
												"text": "Confirm",
												"isEnabled": false
											}
										]
									},
									{
										"id": 4,
										"type": "question",
										"answer": 1,
										"text": "Mercurio è uno degli unici due pianeti che non hanno lune nel nostro Sistema Solare",
										"numberOfColumns": 1,
										"modules": [
											{
												"type": "title",
												"text": "Quante lune ha Mercurio?",
												"alignement": "centered"
											},
											{
												"type": "answer",
												"id": 1,
												"body": "Nessuna luna!"
											},
											{
												"type": "answer",
												"id": 2,
												"body": "12 lune!"
											},
											{
												"type": "answer",
												"id": 3,
												"body": "1 luna!"
											},
											{
												"type": "button",
												"text": "Confirm",
												"isEnabled": false
											}
										]
									}
								]
							},
							{
								"type": "content",
								"modules": [
									{
										"type": "space",
										"height": 50
									},
									{
										"type": "title",
										"text": "LIVELLO",
										"alignement": "center",
										"style": "small"
									},
									{
										"type": "title",
										"text": "COMPLETATO",
										"alignement": "center",
										"style": "h1"
									},
									{
										"type": "planet",
										"name": "Mercury",
										"color": "#CFC2BC",
										"image": "planet",
										"speed": 75,
										"offset": 40,
										"orbit": 1,
										"topic": 1,
										"sound": "Mercurio.mp3",
										"textColor": "answerText",
										"percentage": 0.5
									},
									{
										"type": "button",
										"text": "Next",
										"endpoint": "ar"
									}
								]
							}
						]
					},
					{
						"type": "level",
						"story": 0,
						"topic": 1,
						"level": 2,
						"modules": [
							{
								"type": "questions",
								"topic": 1,
								"level": 2,
								"modules": [
									{
										"id": 5,
										"type": "question",
										"answer": 3,
										"text": "Venere è il pianeta più vicino a Mercurio! Anche il Sole è un vicino di Mercurio ma non è un pianeta!",
										"numberOfColumns": 1,
										"modules": [
											{
												"type": "title",
												"text": "Qual è il pianeta più vicino a Mercurio?",
												"alignement": "centered"
											},
											{
												"type": "answer",
												"id": 1,
												"body": "Terra e Sole!"
											},
											{
												"type": "answer",
												"id": 2,
												"body": "Venere e Sole!"
											},
											{
												"type": "answer",
												"id": 3,
												"body": "Venere!"
											},
											{
												"type": "button",
												"text": "Confirm",
												"isEnabled": false
											}
										]
									},
									{
										"id": 6,
										"type": "question",
										"answer": 3,
										"text": "Mercurio è un pianeta piccolo e roccioso! Attualmente è il pianeta più piccolo del nostro Sistema Solare",
										"numberOfColumns": 1,
										"modules": [
											{
												"type": "title",
												"text": "Da cosa è composto Mercurio?",
												"alignement": "centered"
											},
											{
												"type": "answer",
												"id": 1,
												"body": "Mercurio è gassoso"
											},
											{
												"type": "answer",
												"id": 2,
												"body": "Mercurio è liquido"
											},
											{
												"type": "answer",
												"id": 3,
												"body": "Mercurio è roccioso"
											},
											{
												"type": "button",
												"text": "Confirm",
												"isEnabled": false
											}
										]
									},
									{
										"id": 7,
										"type": "question",
										"answer": 1,
										"text": "Mercurio è conosciuto sin dai tempi antichi poiché può essere visto senza telescopi!",
										"numberOfColumns": 1,
										"modules": [
											{
												"type": "title",
												"text": "Quanto tempo fa è stato scoperto Mercurio?",
												"alignement": "centered"
											},
											{
												"type": "answer",
												"id": 1,
												"body": "Nei tempi antichi!"
											},
											{
												"type": "answer",
												"id": 2,
												"body": "Non è mai stato scoperto!"
											},
											{
												"type": "answer",
												"id": 3,
												"body": "E'stato scoperto nel 2015!"
											},
											{
												"type": "button",
												"text": "Confirm",
												"isEnabled": false
											}
										]
									},
									{
										"id": 8,
										"type": "question",
										"answer": 3,
										"text": "Mercurio impiega circa 88 Giorni Terrestri per compiere una singola orbita attorno al Sole",
										"numberOfColumns": 1,
										"modules": [
											{
												"type": "title",
												"text": "Quanto dura un anno su Mercurio?",
												"alignement": "centered"
											},
											{
												"type": "answer",
												"id": 1,
												"body": "225 Giorni Terrestri"
											},
											{
												"type": "answer",
												"id": 2,
												"body": "687 Giorni Terrestri"
											},
											{
												"type": "answer",
												"id": 3,
												"body": "88 Giorni Terrestri"
											},
											{
												"type": "button",
												"text": "Confirm",
												"isEnabled": false
											}
										]
									}
								]
							}
						]
					}
				]
			},
			{
				"type": "topic",
				"segment": "fullWidth",
				"story": 0,
				"topic": 5,
				"name": "Jupiter",
				"text": "Jupiter",
				"color": "#EABA89",
				"image": "jupiter",
				"sound": "Jupiter.mp3",
				"modules": [
					{
						"type": "level",
						"story": 0,
						"topic": 5,
						"level": 1,
						"modules": [
							{
								"type": "questions",
								"topic": 5,
								"level": 1,
								"modules": [
									{
										"id": 1,
										"type": "question",
										"answer": 3,
										"text": "Giove è il pianeta più grande del Sistema Solare, ma non grande abbastanza (fortunatamente) per cominciare a bruciare e diventare una stella",
										"numberOfColumns": 1,
										"modules": [
											{
												"type": "title",
												"text": "Quanto è grande Giove?",
												"alignement": "centered"
											},
											{
												"type": "answer",
												"id": 1,
												"body": "Circa 500 volte la Terra"
											},
											{
												"type": "answer",
												"id": 2,
												"body": "Circa 800 volte la Terra"
											},
											{
												"type": "answer",
												"id": 3,
												"body": "Circa 1300 volte la Terra"
											},
											{
												"type": "button",
												"text": "Confirm",
												"isEnabled": false
											}
										]
									},
									{
										"id": 2,
										"type": "question",
										"answer": 2,
										"text": "Giove è un gigante gassoso, proprio come Saturno",
										"numberOfColumns": 1,
										"modules": [
											{
												"type": "title",
												"text": "Che tipo di pianeta è Giove?",
												"alignement": "centered"
											},
											{
												"type": "answer",
												"id": 1,
												"body": "Gigante Ghiacciato"
											},
											{
												"type": "answer",
												"id": 2,
												"body": "Gigante Gassoso"
											},
											{
												"type": "answer",
												"id": 3,
												"body": "Pianeta Roccioso"
											},
											{
												"type": "button",
												"text": "Confirm",
												"isEnabled": false
											}
										]
									},
									{
										"id": 3,
										"type": "question",
										"answer": 1,
										"text": "Un giorno su Giove dura circa 10 ore, perché Giove è il pianeta con la rotazione più veloce attorno al proprio asse dell'intero Sistema Solare. La rotazione veloce è anche la causa della Grande Macchia Rossa visibile sul pianeta",
										"numberOfColumns": 1,
										"modules": [
											{
												"type": "title",
												"text": "Quanto dura un giorno su Giove?",
												"alignement": "centered"
											},
											{
												"type": "answer",
												"id": 1,
												"body": "10 ore"
											},
											{
												"type": "answer",
												"id": 2,
												"body": "24 ore"
											},
											{
												"type": "answer",
												"id": 3,
												"body": "32 ore"
											},
											{
												"type": "button",
												"text": "Confirm",
												"isEnabled": false
											}
										]
									},
									{
										"id": 4,
										"type": "question",
										"answer": 1,
										"text": "Nonostante non siano visibili come quelli di Saturno, anche Giove ha i suoi anelli ma è veramente difficile vederli perché sono molto sottili",
										"numberOfColumns": 1,
										"modules": [
											{
												"type": "title",
												"text": "Giove ha degli anelli?",
												"alignement": "centered"
											},
											{
												"type": "answer",
												"id": 1,
												"body": "Si"
											},
											{
												"type": "answer",
												"id": 2,
												"body": "No"
											},
											{
												"type": "button",
												"text": "Confirm",
												"isEnabled": false
											}
										]
									}
								]
							},
							{
								"type": "content",
								"modules": [
									{
										"type": "space",
										"height": 50
									},
									{
										"type": "title",
										"text": "LIVELLO",
										"alignement": "center",
										"style": "small"
									},
									{
										"type": "title",
										"text": "COMPLETATO",
										"alignement": "center",
										"style": "h1"
									},
									{
										"type": "planet",
										"name": "Jupiter",
										"color": "#EABA89",
										"image": "planet",
										"speed": 75,
										"offset": 50,
										"orbit": 5,
										"topic": 5,
										"sound": "Jupiter.mp3",
										"textColor": "answerText",
										"percentage": 0.5
									},
									{
										"type": "button",
										"text": "Next",
										"endpoint": "ar"
									}
								]
							}
						]
					},
					{
						"type": "level",
						"story": 0,
						"topic": 5,
						"level": 2,
						"modules": [
							{
								"type": "questions",
								"topic": 5,
								"level": 2,
								"modules": [
									{
										"id": 5,
										"type": "question",
										"answer": 3,
										"text": "Giove ha un tantissime lune, ben 79! La lune più grandi sono conosciute come lune Galileane, essendo state scoperte da Galileo Galilei. Ganimede è la luna più grande del sistema solare",
										"numberOfColumns": 1,
										"modules": [
											{
												"type": "title",
												"text": "Quante lune ha Giove?",
												"alignement": "centered"
											},
											{
												"type": "answer",
												"id": 1,
												"body": "57 lune"
											},
											{
												"type": "answer",
												"id": 2,
												"body": "67 lune"
											},
											{
												"type": "answer",
												"id": 3,
												"body": "79 lune"
											},
											{
												"type": "button",
												"text": "Confirm",
												"isEnabled": false
											}
										]
									},
									{
										"id": 6,
										"type": "question",
										"answer": 1,
										"text": "La Grande Macchia Rossa è una gigantesca tempesta che dura da più di 350 anni e che non si sa se finirà mai! È così grande che la Terra potrebbe essere contenuta 3 volte al suo interno",
										"numberOfColumns": 1,
										"modules": [
											{
												"type": "title",
												"text": "Che cos'è la Grande Macchia Rossa?",
												"alignement": "centered"
											},
											{
												"type": "answer",
												"id": 1,
												"body": "Una tempesta"
											},
											{
												"type": "answer",
												"id": 2,
												"body": "Una montagna"
											},
											{
												"type": "answer",
												"id": 3,
												"body": "Un oceano"
											},
											{
												"type": "button",
												"text": "Confirm",
												"isEnabled": false
											}
										]
									},
									{
										"id": 7,
										"type": "question",
										"answer": 2,
										"text": "No, Giove, a differenza degli altri pianeti del Sistema Solare, non ha un'inclinazione tale da permettergli cambi di stagione!",
										"numberOfColumns": 1,
										"modules": [
											{
												"type": "title",
												"text": "Giove ha le stagioni?",
												"alignement": "centered"
											},
											{
												"type": "answer",
												"id": 1,
												"body": "Si"
											},
											{
												"type": "answer",
												"id": 2,
												"body": "No"
											},
											{
												"type": "button",
												"text": "Confirm",
												"isEnabled": false
											}
										]
									},
									{
										"id": 8,
										"type": "question",
										"answer": 3,
										"text": "Poiché Giove è 5 volte più distante dal Sole rispetto la Terra, deve coprire molta più distanza per completare una rivoluzione completa attorno al Sole. A causa di ciò un anno su Giove dura circa 12 anni sulla Terra",
										"numberOfColumns": 1,
										"modules": [
											{
												"type": "title",
												"text": "Quanto è lungo un anno su Giove?",
												"alignement": "centered"
											},
											{
												"type": "answer",
												"id": 1,
												"body": "4 anni"
											},
											{
												"type": "answer",
												"id": 2,
												"body": "9 anni"
											},
											{
												"type": "answer",
												"id": 3,
												"body": "12 anni"
											},
											{
												"type": "button",
												"text": "Confirm",
												"isEnabled": false
											}
										]
									}
								]
							}
						]
					}
				]
			},
			{
				"type": "topic",
				"segment": "oneThird",
				"story": 0,
				"topic": 6,
				"name": "Saturn",
				"text": "Saturn",
				"color": "#E0D95D",
				"image": "saturn",
				"sound": "Saturn.mp3",
				"modules": [
					{
						"type": "level",
						"story": 0,
						"topic": 6,
						"level": 1,
						"modules": [
							{
								"type": "questions",
								"topic": 6,
								"level": 1,
								"modules": [
									{
										"id": 1,
										"type": "question",
										"answer": 1,
										"text": "Gli anelli che vediamo sono composti da gruppi di anelli più piccoli e sottili che circondano Saturno. Questi sono composti da ghiaccio e rocce",
										"numberOfColumns": 1,
										"modules": [
											{
												"type": "title",
												"text": "Di cosa sono fatti gli anelli che circondano Saturno?",
												"alignement": "centered"
											},
											{
												"type": "answer",
												"id": 1,
												"body": "Ghiaccio e Rocce"
											},
											{
												"type": "answer",
												"id": 2,
												"body": "Gas"
											},
											{
												"type": "button",
												"text": "Confirm",
												"isEnabled": false
											}
										]
									},
									{
										"id": 2,
										"type": "question",
										"answer": 1,
										"text": "Saturno è un gigante gassoso come Giove. È composto per la maggior parte da idrogeno ed elio",
										"numberOfColumns": 1,
										"modules": [
											{
												"type": "title",
												"text": "Che tipo di pianeta è Saturno?",
												"alignement": "centered"
											},
											{
												"type": "answer",
												"id": 1,
												"body": "Gigante Gassoso"
											},
											{
												"type": "answer",
												"id": 2,
												"body": "Gigante Ghiacciato"
											},
											{
												"type": "answer",
												"id": 3,
												"body": "Pianeta Roccioso"
											},
											{
												"type": "button",
												"text": "Confirm",
												"isEnabled": false
											}
										]
									},
									{
										"id": 3,
										"type": "question",
										"answer": 3,
										"text": "Un giorno su Saturno ha la durata di circa 11 ore",
										"numberOfColumns": 1,
										"modules": [
											{
												"type": "title",
												"text": "Quanto è lungo un giorno su Saturno?",
												"alignement": "centered"
											},
											{
												"type": "answer",
												"id": 1,
												"body": "5 ore"
											},
											{
												"type": "answer",
												"id": 2,
												"body": "18 ore"
											},
											{
												"type": "answer",
												"id": 3,
												"body": "11 ore"
											},
											{
												"type": "button",
												"text": "Confirm",
												"isEnabled": false
											}
										]
									},
									{
										"id": 4,
										"type": "question",
										"answer": 3,
										"text": "Un anno su Saturno equivale a circa 29 anni sulla Terra",
										"numberOfColumns": 1,
										"modules": [
											{
												"type": "title",
												"text": "Quanto è lungo un anno su Saturno?",
												"alignement": "centered"
											},
											{
												"type": "answer",
												"id": 1,
												"body": "12 anni"
											},
											{
												"type": "answer",
												"id": 2,
												"body": "17 anni"
											},
											{
												"type": "answer",
												"id": 3,
												"body": "29 anni"
											},
											{
												"type": "button",
												"text": "Confirm",
												"isEnabled": false
											}
										]
									}
								]
							},
							{
								"type": "content",
								"modules": [
									{
										"type": "space",
										"height": 50
									},
									{
										"type": "title",
										"text": "LIVELLO",
										"alignement": "center",
										"style": "small"
									},
									{
										"type": "title",
										"text": "COMPLETATO",
										"alignement": "center",
										"style": "h1"
									},
									{
										"type": "planet",
										"name": "Saturn",
										"color": "#E0D95D",
										"image": "planet",
										"speed": 75,
										"offset": 70,
										"orbit": 6,
										"topic": 6,
										"sound": "Saturno.mp3",
										"textColor": "answerText",
										"percentage": 0.5
									},
									{
										"type": "button",
										"text": "Next",
										"endpoint": "ar"
									}
								]
							}
						]
					},
					{
						"type": "level",
						"story": 0,
						"topic": 6,
						"level": 2,
						"modules": [
							{
								"type": "questions",
								"topic": 6,
								"level": 2,
								"modules": [
									{
										"id": 5,
										"type": "question",
										"answer": 3,
										"text": "Saturno possiede 82 lune!\r\nUna di queste, Titan, è della grandezza di un pianeta (È più grande di Mercurio!) e possiede anche una sua atmosfera. Una sonda, detta Huygens, è stata inviata su Titan nel 2004",
										"numberOfColumns": 1,
										"modules": [
											{
												"type": "title",
												"text": "Quante lune ha Saturno?",
												"alignement": "centered"
											},
											{
												"type": "answer",
												"id": 1,
												"body": "53 lune"
											},
											{
												"type": "answer",
												"id": 2,
												"body": "65 lune"
											},
											{
												"type": "answer",
												"id": 3,
												"body": "82 lune"
											},
											{
												"type": "button",
												"text": "Confirm",
												"isEnabled": false
											}
										]
									},
									{
										"id": 6,
										"type": "question",
										"answer": 2,
										"text": "No, su Saturno non c'è acqua. Ma si pensa che una delle sue lune, Enceladus, abbia un oceano al di sotto della sua superficie ghiacciata.",
										"numberOfColumns": 1,
										"modules": [
											{
												"type": "title",
												"text": "C'è acqua su Saturno?",
												"alignement": "centered"
											},
											{
												"type": "answer",
												"id": 1,
												"body": "Si"
											},
											{
												"type": "answer",
												"id": 2,
												"body": "No"
											},
											{
												"type": "button",
												"text": "Confirm",
												"isEnabled": false
											}
										]
									},
									{
										"id": 7,
										"type": "question",
										"answer": 2,
										"text": "No, non si può camminare su Saturno poichè è composto principalmente da gas. È talmente poco denso che, se avessimo una vasca gigante piena d'acqua, il pianeta galleggerebbe al suo interno.",
										"numberOfColumns": 1,
										"modules": [
											{
												"type": "title",
												"text": "Si può camminare su Saturno?",
												"alignement": "centered"
											},
											{
												"type": "answer",
												"id": 1,
												"body": "Si"
											},
											{
												"type": "answer",
												"id": 2,
												"body": "No"
											},
											{
												"type": "button",
												"text": "Confirm",
												"isEnabled": false
											}
										]
									},
									{
										"id": 8,
										"type": "question",
										"answer": 2,
										"text": "Gli anelli di Saturno sono più recenti dei dinosauri, si sono formati infatti circa 100 milioni di anni fa!",
										"numberOfColumns": 1,
										"modules": [
											{
												"type": "title",
												"text": "Chi è più giovane?",
												"alignement": "centered"
											},
											{
												"type": "answer",
												"id": 1,
												"body": "I dinosauri"
											},
											{
												"type": "answer",
												"id": 2,
												"body": "Gli anelli di Saturno"
											},
											{
												"type": "button",
												"text": "Confirm",
												"isEnabled": false
											}
										]
									}
								]
							}
						]
					}
				]
			},
			{
				"type": "topic",
				"segment": "oneThird",
				"story": 0,
				"topic": 8,
				"name": "Neptune",
				"text": "Neptune",
				"color": "#8EC2D3",
				"image": "neptune",
				"sound": "Neptune.mp3",
				"modules": [
					{
						"type": "level",
						"story": 0,
						"topic": 8,
						"level": 1,
						"modules": [
							{
								"type": "questions",
								"topic": 8,
								"level": 1,
								"modules": [
									{
										"id": 1,
										"type": "question",
										"answer": 2,
										"text": "Nettuno è distante circa 30 volte la distanza tra Sole e Terra",
										"numberOfColumns": 1,
										"modules": [
											{
												"type": "title",
												"text": "Rispetto alla Terra, Nettuno è più vicino o più lontano dal Sole?",
												"alignement": "centered"
											},
											{
												"type": "answer",
												"id": 1,
												"body": "Più vicino"
											},
											{
												"type": "answer",
												"id": 2,
												"body": "Più lontano"
											},
											{
												"type": "button",
												"text": "Confirm",
												"isEnabled": false
											}
										]
									},
									{
										"id": 2,
										"type": "question",
										"answer": 1,
										"text": "Nettuno è un Gigante Ghiacciato, proprio come Urano. L'atmosfera è molto spessa e ventosa  su di un nucleo solido, che ha la stessa dimensione della Terra circa",
										"numberOfColumns": 1,
										"modules": [
											{
												"type": "title",
												"text": "Che tipo di pianeta è Nettuno?",
												"alignement": "centered"
											},
											{
												"type": "answer",
												"id": 1,
												"body": "Gigante Ghiacciato"
											},
											{
												"type": "answer",
												"id": 2,
												"body": "Gigante Gassoso"
											},
											{
												"type": "answer",
												"id": 3,
												"body": "Pianeta Roccioso"
											},
											{
												"type": "button",
												"text": "Confirm",
												"isEnabled": false
											}
										]
									},
									{
										"id": 3,
										"type": "question",
										"answer": 1,
										"text": "Un giorno su Nettuno ha la durata di circa 16 ore",
										"numberOfColumns": 1,
										"modules": [
											{
												"type": "title",
												"text": "Quanto dura un giorno su Nettuno?",
												"alignement": "centered"
											},
											{
												"type": "answer",
												"id": 1,
												"body": "16 ore"
											},
											{
												"type": "answer",
												"id": 2,
												"body": "24 ore"
											},
											{
												"type": "answer",
												"id": 3,
												"body": "36 ore"
											},
											{
												"type": "button",
												"text": "Confirm",
												"isEnabled": false
											}
										]
									},
									{
										"id": 4,
										"type": "question",
										"answer": 3,
										"text": "Nettuno ha una rotazione davvero lunga attorno al Sole! Dura circa 165 anni!",
										"numberOfColumns": 1,
										"modules": [
											{
												"type": "title",
												"text": "Quanto dura un anno su Nettuno?",
												"alignement": "centered"
											},
											{
												"type": "answer",
												"id": 1,
												"body": "35 anni"
											},
											{
												"type": "answer",
												"id": 2,
												"body": "74 anni"
											},
											{
												"type": "answer",
												"id": 3,
												"body": "165 anni"
											},
											{
												"type": "button",
												"text": "Confirm",
												"isEnabled": false
											}
										]
									}
								]
							},
							{
								"type": "content",
								"modules": [
									{
										"type": "space",
										"height": 50
									},
									{
										"type": "title",
										"text": "LIVELLO",
										"alignement": "center",
										"style": "small"
									},
									{
										"type": "title",
										"text": "COMPLETATO",
										"alignement": "center",
										"style": "h1"
									},
									{
										"type": "planet",
										"name": "Neptune",
										"color": "#8EC2D3",
										"image": "planet",
										"speed": 35,
										"offset": 90,
										"orbit": 8,
										"topic": 8,
										"sound": "Neptuno.mp3",
										"textColor": "answerText",
										"percentage": 0.5
									},
									{
										"type": "button",
										"text": "Next",
										"endpoint": "ar"
									}
								]
							}
						]
					},
					{
						"type": "level",
						"story": 0,
						"topic": 8,
						"level": 2,
						"modules": [
							{
								"type": "questions",
								"topic": 8,
								"level": 1,
								"modules": [
									{
										"id": 5,
										"type": "question",
										"answer": 2,
										"text": "Nettuno ha circa 13 lune, e questo numero sta per aumentare perché una Luna è in attesa di conferma di scoperta!",
										"numberOfColumns": 1,
										"modules": [
											{
												"type": "title",
												"text": "Quante lune ha Nettuno?",
												"alignement": "centered"
											},
											{
												"type": "answer",
												"id": 1,
												"body": "7 lune"
											},
											{
												"type": "answer",
												"id": 2,
												"body": "13 lune"
											},
											{
												"type": "answer",
												"id": 3,
												"body": "22 lune"
											},
											{
												"type": "button",
												"text": "Confirm",
												"isEnabled": false
											}
										]
									},
									{
										"id": 6,
										"type": "question",
										"answer": 3,
										"text": "La temperatura su Nettuno è di circa -255 gradi Celsius!Inoltre ci sono davvero un vento fortissimo ed alcune violente tempeste che non lo rendono un buon pianeta su cui abitare",
										"numberOfColumns": 1,
										"modules": [
											{
												"type": "title",
												"text": "Qual è la temperatura su Nettuno?",
												"alignement": "centered"
											},
											{
												"type": "answer",
												"id": 1,
												"body": "-185 °C"
											},
											{
												"type": "answer",
												"id": 2,
												"body": "-215 °C"
											},
											{
												"type": "answer",
												"id": 3,
												"body": "-255 °C"
											},
											{
												"type": "button",
												"text": "Confirm",
												"isEnabled": false
											}
										]
									},
									{
										"id": 7,
										"type": "question",
										"answer": 2,
										"text": "Solo una navicella è volata oltre Nettuno, nel 1989. Ci sono volute circa 4 ore per far arrivare le immagini di Nettuno sulla Terra",
										"numberOfColumns": 1,
										"modules": [
											{
												"type": "title",
												"text": "Quante navicelle hanno viaggiato oltre Nettuno?",
												"alignement": "centered"
											},
											{
												"type": "answer",
												"id": 1,
												"body": "Nessuna"
											},
											{
												"type": "answer",
												"id": 2,
												"body": "1 navicella"
											},
											{
												"type": "answer",
												"id": 3,
												"body": "2 navicelle"
											},
											{
												"type": "button",
												"text": "Confirm",
												"isEnabled": false
											}
										]
									},
									{
										"id": 8,
										"type": "question",
										"answer": 1,
										"text": "Come Saturno ed Urano, anche Nettuno ha una serie di anelli che lo circondano, ma sono cosi scuri che è davvero molto difficile vederli!",
										"numberOfColumns": 1,
										"modules": [
											{
												"type": "title",
												"text": "Nettuno è circondato da anelli?"
											},
											{
												"type": "answer",
												"id": 1,
												"body": "Si"
											},
											{
												"type": "answer",
												"id": 2,
												"body": "No"
											},
											{
												"type": "button",
												"text": "Confirm",
												"isEnabled": false
											}
										]
									}
								]
							}
						]
					}
				]
			},
			{
				"type": "topic",
				"segment": "oneThird",
				"story": 0,
				"topic": 7,
				"name": "Uranus",
				"text": "Uranus",
				"color": "#949FC2",
				"image": "uranus",
				"sound": "Uranus.mp3",
				"modules": [
					{
						"type": "level",
						"story": 0,
						"topic": 7,
						"level": 1,
						"modules": [
							{
								"type": "questions",
								"topic": 7,
								"level": 1,
								"modules": [
									{
										"id": 1,
										"type": "question",
										"answer": 1,
										"text": "Urano è circondato da alcuni anelli, ma è molto difficile vederli perché sono meno chiari di quelli di Saturno",
										"numberOfColumns": 2,
										"modules": [
											{
												"type": "title",
												"text": "Urano ha gli anelli?",
												"alignement": "centered"
											},
											{
												"type": "answer",
												"id": 1,
												"body": "Si",
												"image": "uranus"
											},
											{
												"type": "answer",
												"id": 2,
												"body": "No",
												"image": "uranus-no-rings"
											},
											{
												"type": "button",
												"text": "Confirm",
												"isEnabled": false
											}
										]
									},
									{
										"id": 2,
										"type": "question",
										"answer": 1,
										"text": "Un giorno su Urano ha la durata di 17 ore, poiché ruota attorno al suo asse più velocemente di quanto la Terra non faccia attorno al proprio",
										"numberOfColumns": 1,
										"modules": [
											{
												"type": "title",
												"text": "Quanto dura un giorno su Urano?",
												"alignement": "centered"
											},
											{
												"type": "answer",
												"id": 1,
												"body": "17 ore"
											},
											{
												"type": "answer",
												"id": 2,
												"body": "20 ore"
											},
											{
												"type": "answer",
												"id": 3,
												"body": "24 ore"
											},
											{
												"type": "button",
												"text": "Confirm",
												"isEnabled": false
											}
										]
									},
									{
										"id": 3,
										"type": "question",
										"answer": 2,
										"text": "Urano completa la sua orbita attorno al sole ogni 82 giorni!",
										"numberOfColumns": 1,
										"modules": [
											{
												"type": "title",
												"text": "Quanto dura un anno su Urano?",
												"alignement": "centered"
											},
											{
												"type": "answer",
												"id": 1,
												"body": "365 giorni"
											},
											{
												"type": "answer",
												"id": 2,
												"body": "84 giorni"
											},
											{
												"type": "answer",
												"id": 3,
												"body": "52 giorni"
											},
											{
												"type": "button",
												"text": "Confirm",
												"isEnabled": false
											}
										]
									},
									{
										"id": 4,
										"type": "question",
										"answer": 3,
										"text": "Urano possiede 27 lune. La più grande, Titania, ha le dimensioni della nostra luna",
										"numberOfColumns": 1,
										"modules": [
											{
												"type": "title",
												"text": "Quante lune ha Urano?",
												"alignement": "centered"
											},
											{
												"type": "answer",
												"id": 1,
												"body": "1 luna"
											},
											{
												"type": "answer",
												"id": 2,
												"body": "14 lune"
											},
											{
												"type": "answer",
												"id": 3,
												"body": "27 lune"
											},
											{
												"type": "button",
												"text": "Confirm",
												"isEnabled": false
											}
										]
									}
								]
							},
							{
								"type": "content",
								"modules": [
									{
										"type": "space",
										"height": 50
									},
									{
										"type": "title",
										"text": "LIVELLO",
										"alignement": "center",
										"style": "small"
									},
									{
										"type": "title",
										"text": "COMPLETATO",
										"alignement": "center",
										"style": "h1"
									},
									{
										"type": "planet",
										"name": "Uranus",
										"color": "#949FC2",
										"image": "planet",
										"speed": 75,
										"offset": 80,
										"orbit": 7,
										"topic": 7,
										"sound": "Urano.mp3",
										"textColor": "answerText",
										"percentage": 0.5
									},
									{
										"type": "button",
										"text": "Next",
										"endpoint": "ar"
									}
								]
							}
						]
					},
					{
						"type": "level",
						"story": 0,
						"topic": 7,
						"level": 2,
						"modules": [
							{
								"type": "questions",
								"topic": 7,
								"level": 2,
								"modules": [
									{
										"id": 5,
										"type": "question",
										"answer": 3,
										"text": "Urano è l'unico pianeta del Sistema Solare che ruota in maniera verticale",
										"numberOfColumns": 1,
										"modules": [
											{
												"type": "title",
												"text": "Lungo quale direzione ruota Urano?",
												"alignement": "centered"
											},
											{
												"type": "answer",
												"id": 1,
												"body": "Non ruota"
											},
											{
												"type": "answer",
												"id": 2,
												"body": "Orizzontale"
											},
											{
												"type": "answer",
												"id": 3,
												"body": "Verticale"
											},
											{
												"type": "button",
												"text": "Confirm",
												"isEnabled": false
											}
										]
									},
									{
										"id": 6,
										"type": "question",
										"answer": 2,
										"text": "Urano è il pianeta con l'atmosfera più fredda del Sistema Solare. Un buon posto per ripararsi dal caldo estivo!",
										"numberOfColumns": 1,
										"modules": [
											{
												"type": "title",
												"text": "Qual è la temperatura su Urano?",
												"alignement": "centered"
											},
											{
												"type": "answer",
												"id": 1,
												"body": "Circa 24 °C"
											},
											{
												"type": "answer",
												"id": 2,
												"body": "Tra -212°C e -240°C"
											},
											{
												"type": "answer",
												"id": 3,
												"body": "Circa 42 °C"
											},
											{
												"type": "button",
												"text": "Confirm",
												"isEnabled": false
											}
										]
									},
									{
										"id": 7,
										"type": "question",
										"answer": 1,
										"text": "Urano è il primo pianeta ad essere scoperto con il telescopio. Herschel, astronomo e musicista, scoprì Urano il 13 Marzo del 1781",
										"numberOfColumns": 1,
										"modules": [
											{
												"type": "title",
												"text": "Who discovered Uranus?",
												"alignement": "centered"
											},
											{
												"type": "answer",
												"id": 1,
												"body": "Herschel"
											},
											{
												"type": "answer",
												"id": 2,
												"body": "Galilei"
											},
											{
												"type": "answer",
												"id": 3,
												"body": "Copernico"
											},
											{
												"type": "button",
												"text": "Confirm",
												"isEnabled": false
											}
										]
									},
									{
										"id": 8,
										"type": "question",
										"answer": 1,
										"text": "Urano è uno dei due pianeti detti Giganti Ghiacciati del Sistema Solare. L'altro è Nettuno!",
										"numberOfColumns": 1,
										"modules": [
											{
												"type": "title",
												"text": "Che tipo di pianeta è Urano?",
												"alignement": "centered"
											},
											{
												"type": "answer",
												"id": 1,
												"body": "Gigante Ghiacciato"
											},
											{
												"type": "answer",
												"id": 2,
												"body": "Pianeta roccioso"
											},
											{
												"type": "button",
												"text": "Confirm",
												"isEnabled": false
											}
										]
									}
								]
							}
						]
					}
				]
			}
		]
	}
]
