{
  "info" : {
    "version" : 1,
    "author" : "xcode"
  },
  "colors" : [
    {
      "idiom" : "universal",
      "color" : {
        "color-space" : "display-p3",
        "components" : {
          "red" : "0.853",
          "alpha" : "1.000",
          "blue" : "0.631",
          "green" : "0.587"
        }
      }
    }
  ]
}